{
    "spaces":{
        "slice0": {
            "hosts": [
                "butane"
            ],
            "ports": [
                8888
            ]
        },
        "hosts":[
            "methane",
            "ethane",
            "propane"
        ]
    },

    "user" : {
        "username": "uceedv0"
    },

    "remote": {
        "path": "/home/uceedv0/"
    }
}
